{"content":[{"id":1,"name":"Madhubani Hand-painted Canvas","description":"Traditional Madhubani folk art, hand-painted on cotton canvas.","price":1499.00,"discountPercent":10,"effectivePrice":1349.10,"categoryId":1,"stock":8,"active":true,"sellerId":1,"createdAt":"2026-05-30T12:04:46.008314Z","imageUrls":["https://picsum.photos/seed/madhubani-hand-painted-canvas/400/300"]},{"id":2,"name":"Terracotta Vase Set","description":"Set of 3 hand-thrown terracotta vases with natural glaze.","price":899.00,"discountPercent":0,"effectivePrice":899.00,"categoryId":2,"stock":15,"active":true,"sellerId":1,"createdAt":"2026-05-30T12:04:46.068051Z","imageUrls":["https://picsum.photos/seed/terracotta-vase-set/400/300"]}],"pageable":{"pageNumber":0,"pageSize":2,"sort":[],"offset":0,"paged":true,"unpaged":false},"last":false,"totalElements":6,"totalPages":3,"first":true,"size":2,"number":0,"sort":[],"numberOfElements":2,"empty":false}